{
    "data": [
        {
            "cost": 0,
            "delivery_state": null,
            "exit_count": "0",
            "irancell_cost": null,
            "mci_cost": null,
            "message": "تست پیام\nلغو11",
            "message_id": 1169959685,
            "number": "+989992177234",
            "last_change_delivery": "2025-06-06T02:16:33+03:30",
            "part": "0",
            "recipient_count": "1",
            "admin_comment": null,
            "return_cost": null,
            "state": "active",
            "used_shorted_link": false,
            "summary": "ارسال وب سرویس به 1 شماره",
            "time": "2025-06-06T02:16:33+03:30",
            "time_send": "2025-06-06T02:16:33+03:30",
            "type": "webservice",
            "username": "09124656500",
            "valid": "notconfirm"
        },
        {
            "cost": 0,
            "delivery_state": null,
            "exit_count": "0",
            "irancell_cost": null,
            "mci_cost": null,
            "message": "تست پیام\nلغو11",
            "message_id": 1169959471,
            "number": "+989992177234",
            "last_change_delivery": "2025-06-06T02:15:12+03:30",
            "part": "0",
            "recipient_count": "1",
            "admin_comment": null,
            "return_cost": null,
            "state": "active",
            "used_shorted_link": false,
            "summary": "ارسال وب سرویس به 1 شماره",
            "time": "2025-06-06T02:15:12+03:30",
            "time_send": "2025-06-06T02:15:12+03:30",
            "type": "webservice",
            "username": "09124656500",
            "valid": "notconfirm"
        },
        {
            "cost": 5869,
            "delivery_state": null,
            "exit_count": "1",
            "irancell_cost": null,
            "mci_cost": null,
            "message": "خیلی‌ها شروع می‌کنن، اما تعداد کمی به پایان می‌رسن.\nاحسان عزیز ورودت رو به دوره کپسول معامله گری خوش آمد می‌گیم.\nتا پایان همراه ما باش.\n\nدلفین‌وست\nلغو11",
            "message_id": 1169958907,
            "number": "+9810002030004050",
            "last_change_delivery": "2025-06-06T02:11:30+03:30",
            "part": "3",
            "recipient_count": "1",
            "admin_comment": null,
            "return_cost": null,
            "state": "finish",
            "used_shorted_link": false,
            "summary": "ارسال پترن",
            "time": "2025-06-06T02:11:30+03:30",
            "time_send": "2025-06-06T02:11:29+03:30",
            "type": "pattern",
            "username": "09124656500",
            "valid": "approve"
        },
        {
            "cost": 1956,
            "delivery_state": null,
            "exit_count": "1",
            "irancell_cost": null,
            "mci_cost": null,
            "message": "کاربر گرامی،\nکد تایید شما: 45073\n\nدلفین‌وست | www.dolfinvest.com\nلغو11",
            "message_id": 1169958678,
            "number": "+9810003894459463",
            "last_change_delivery": "2025-06-06T02:09:57+03:30",
            "part": "1",
            "recipient_count": "1",
            "admin_comment": null,
            "return_cost": null,
            "state": "finish",
            "used_shorted_link": false,
            "summary": "ارسال پترن",
            "time": "2025-06-06T02:09:57+03:30",
            "time_send": "2025-06-06T02:09:57+03:30",
            "type": "pattern_otp",
            "username": "09124656500",
            "valid": "approve"
        },
        {
            "cost": 0,
            "delivery_state": null,
            "exit_count": "0",
            "irancell_cost": null,
            "mci_cost": null,
            "message": "تست پیام\nلغو11",
            "message_id": 1169958635,
            "number": "+989992177234",
            "last_change_delivery": "2025-06-06T02:09:40+03:30",
            "part": "0",
            "recipient_count": "1",
            "admin_comment": null,
            "return_cost": null,
            "state": "active",
            "used_shorted_link": false,
            "summary": "ارسال وب سرویس به 1 شماره",
            "time": "2025-06-06T02:09:40+03:30",
            "time_send": "2025-06-06T02:09:40+03:30",
            "type": "webservice",
            "username": "09124656500",
            "valid": "notconfirm"
        },
        {
            "cost": 0,
            "delivery_state": null,
            "exit_count": "0",
            "irancell_cost": null,
            "mci_cost": null,
            "message": "تست پیام\nلغو11",
            "message_id": 1169958607,
            "number": "+989992177234",
            "last_change_delivery": "2025-06-06T02:09:29+03:30",
            "part": "0",
            "recipient_count": "1",
            "admin_comment": null,
            "return_cost": null,
            "state": "active",
            "used_shorted_link": false,
            "summary": "ارسال وب سرویس به 1 شماره",
            "time": "2025-06-06T02:09:29+03:30",
            "time_send": "2025-06-06T02:09:29+03:30",
            "type": "webservice",
            "username": "09124656500",
            "valid": "notconfirm"
        },
        {
            "cost": 0,
            "delivery_state": null,
            "exit_count": "0",
            "irancell_cost": null,
            "mci_cost": null,
            "message": "تست پیام\nلغو11",
            "message_id": 1169958501,
            "number": "+989992177234",
            "last_change_delivery": "2025-06-06T02:08:54+03:30",
            "part": "0",
            "recipient_count": "1",
            "admin_comment": null,
            "return_cost": null,
            "state": "active",
            "used_shorted_link": false,
            "summary": "ارسال وب سرویس به 1 شماره",
            "time": "2025-06-06T02:08:54+03:30",
            "time_send": "2025-06-06T02:08:54+03:30",
            "type": "webservice",
            "username": "09124656500",
            "valid": "notconfirm"
        },
        {
            "cost": 5346,
            "delivery_state": null,
            "exit_count": "1",
            "irancell_cost": null,
            "mci_cost": null,
            "message": "خیلی‌ها شروع می‌کنن، اما تعداد کمی به پایان می‌رسن.\nمحمد عزیز ورودت رو به دوره کپسول معامله گری خوش آمد می‌گیم.\nتا پایان همراه ما باش.\n\nدلفین‌وست\nلغو11",
            "message_id": 1169940258,
            "number": "+9810002030004050",
            "last_change_delivery": "2025-06-06T00:51:05+03:30",
            "part": "3",
            "recipient_count": "1",
            "admin_comment": null,
            "return_cost": null,
            "state": "finish",
            "used_shorted_link": false,
            "summary": "ارسال پترن",
            "time": "2025-06-06T00:51:05+03:30",
            "time_send": "2025-06-06T00:51:05+03:30",
            "type": "pattern",
            "username": "09124656500",
            "valid": "approve"
        },
        {
            "cost": 3564,
            "delivery_state": null,
            "exit_count": "1",
            "irancell_cost": null,
            "mci_cost": null,
            "message": "درخواست تغییر رمز عبور\t\nکاربر گرامی،\nکد تایید شما: 80247\nدلفین‌وست | www.dolfinvest.com\nلغو11",
            "message_id": 1169939983,
            "number": "+9810003894459463",
            "last_change_delivery": "2025-06-06T00:50:09+03:30",
            "part": "2",
            "recipient_count": "1",
            "admin_comment": null,
            "return_cost": null,
            "state": "finish",
            "used_shorted_link": false,
            "summary": "ارسال پترن",
            "time": "2025-06-06T00:50:09+03:30",
            "time_send": "2025-06-06T00:50:09+03:30",
            "type": "pattern_otp",
            "username": "09124656500",
            "valid": "approve"
        },
        {
            "cost": 5869,
            "delivery_state": null,
            "exit_count": "1",
            "irancell_cost": null,
            "mci_cost": null,
            "message": "خیلی‌ها شروع می‌کنن، اما تعداد کمی به پایان می‌رسن.\nنرگس عزیز ورودت رو به دوره بک تست گیری کلید خوش آمد می‌گیم.\nتا پایان همراه ما باش.\n\nدلفین‌وست\nلغو11",
            "message_id": 1169883217,
            "number": "+9810002030004050",
            "last_change_delivery": "2025-06-05T22:31:39+03:30",
            "part": "3",
            "recipient_count": "1",
            "admin_comment": null,
            "return_cost": null,
            "state": "finish",
            "used_shorted_link": false,
            "summary": "ارسال پترن",
            "time": "2025-06-05T22:31:39+03:30",
            "time_send": "2025-06-05T22:31:39+03:30",
            "type": "pattern",
            "username": "09124656500",
            "valid": "approve"
        }
    ],
    "status": "OK",
    "code": 200,
    "errorMessage": "",
    "meta": {
        "total": 22611,
        "pages": 2262,
        "limit": "10",
        "page": 1,
        "prev": null,
        "next": "http://lumen.app.prod.md/api/v1/sms/message/all?page=2"
    }
}